jk_class_based.vcd
$date
	Sat Nov 15 23:19:22 2025
$end

$version
	Synopsys VCS version U-2023.03-SP2_Full64
$end

$timescale
	1ps
$end

$comment Csum: 1 4a70813acf5d2f11 $end


$scope module tb_jk_flipflop $end
$var reg 1 ! clk $end

$scope begin unnamed$$_vcs_1 $end
$upscope $end


$scope begin unnamed$$_vcs_0 $end
$upscope $end


$scope module intf $end
$var reg 1 " clk $end
$var reg 1 # reset $end
$var reg 1 $ j $end
$var reg 1 % k $end
$var reg 1 & q $end
$upscope $end


$scope module dut $end
$upscope $end

$upscope $end

$enddefinitions $end

#0
$dumpvars
0!
0"
x$
x%
x&
x#
$end
#5000
1!
1"
1#
0$
0%
0&
#10000
0!
0"
#15000
1!
1"
0#
1$
1%
#20000
0!
0"
#25000
1!
1"
1&
0%
#30000
0!
0"
#35000
1!
1"
#40000
0!
0"
#45000
1!
1"
0$
1%
#50000
0!
0"
#55000
1!
1"
0&
#60000
0!
0"
#65000
1!
1"
#70000
0!
0"
#75000
1!
1"
1$
#80000
0!
0"
#85000
1!
1"
1&
0$
#90000
0!
0"
#95000
1!
1"
0&
